%YAML 1.1
%TAG !u! tag:unity3d.com,2011:
--- !u!114 &11400000
MonoBehaviour:
  m_ObjectHideFlags: 0
  m_CorrespondingSourceObject: {fileID: 0}
  m_PrefabInstance: {fileID: 0}
  m_PrefabAsset: {fileID: 0}
  m_GameObject: {fileID: 0}
  m_Enabled: 1
  m_EditorHideFlags: 0
  m_Script: {fileID: 11500000, guid: 84051c9236b6aeb4abb8d3dc906d5202, type: 3}
  m_Name: 6270C857-84D9-4B52-8801-69C963264806
  m_EditorClassIdentifier: 
  objectName: Music
  id: 3991942870
  guid: 6270C857-84D9-4B52-8801-69C963264806
