%YAML 1.1
%TAG !u! tag:unity3d.com,2011:
--- !u!114 &11400000
MonoBehaviour:
  m_ObjectHideFlags: 0
  m_CorrespondingSourceObject: {fileID: 0}
  m_PrefabInstance: {fileID: 0}
  m_PrefabAsset: {fileID: 0}
  m_GameObject: {fileID: 0}
  m_Enabled: 1
  m_EditorHideFlags: 0
  m_Script: {fileID: 11500000, guid: b15bc918ac139ae4299d6ae51ac24def, type: 3}
  m_Name: 190BA84F-9526-4724-B27C-8FC27983C858
  m_EditorClassIdentifier: 
  objectName: MusicBank
  id: 3017428748
  guid: 190BA84F-9526-4724-B27C-8FC27983C858
