%YAML 1.1
%TAG !u! tag:unity3d.com,2011:
--- !u!114 &11400000
MonoBehaviour:
  m_ObjectHideFlags: 0
  m_CorrespondingSourceObject: {fileID: 0}
  m_PrefabInstance: {fileID: 0}
  m_PrefabAsset: {fileID: 0}
  m_GameObject: {fileID: 0}
  m_Enabled: 1
  m_EditorHideFlags: 0
  m_Script: {fileID: 11500000, guid: 9eb28625b31ff074293d0dab2994f46e, type: 3}
  m_Name: 62195B78-FC49-4986-87A6-B7C373543DD9
  m_EditorClassIdentifier: 
  objectName: ChieMovement
  id: 2434147981
  guid: 62195B78-FC49-4986-87A6-B7C373543DD9
