%YAML 1.1
%TAG !u! tag:unity3d.com,2011:
--- !u!114 &11400000
MonoBehaviour:
  m_ObjectHideFlags: 0
  m_CorrespondingSourceObject: {fileID: 0}
  m_PrefabInstance: {fileID: 0}
  m_PrefabAsset: {fileID: 0}
  m_GameObject: {fileID: 0}
  m_Enabled: 1
  m_EditorHideFlags: 0
  m_Script: {fileID: 11500000, guid: 5748854137b23344aabf414b277ec709, type: 3}
  m_Name: 220F832C-E2A3-4D19-A856-FAB85A63B946
  m_EditorClassIdentifier: 
  objectName: None
  id: 748895195
  guid: 220F832C-E2A3-4D19-A856-FAB85A63B946
  WwiseStateGroupReference: {fileID: 11400000, guid: 4f93149b4cba51144b13e7f7b136f197,
    type: 2}
