%YAML 1.1
%TAG !u! tag:unity3d.com,2011:
--- !u!114 &11400000
MonoBehaviour:
  m_ObjectHideFlags: 0
  m_CorrespondingSourceObject: {fileID: 0}
  m_PrefabInstance: {fileID: 0}
  m_PrefabAsset: {fileID: 0}
  m_GameObject: {fileID: 0}
  m_Enabled: 1
  m_EditorHideFlags: 0
  m_Script: {fileID: 11500000, guid: 5748854137b23344aabf414b277ec709, type: 3}
  m_Name: 3AF4CBEB-2D09-48F9-ADCA-5898F063EE91
  m_EditorClassIdentifier: 
  objectName: Area1
  id: 629923843
  guid: 3AF4CBEB-2D09-48F9-ADCA-5898F063EE91
  WwiseStateGroupReference: {fileID: 11400000, guid: e18db606398cd43409a4b93abc93e8f5,
    type: 2}
